Homework 5
…
To examine the variability of this random variable we will consider each year to be a new independent outcome. Use the lm and do functions to fit a linear model to each year since 1961 (when they started playing 162 games per year). Hint: use the function tidy in broom to process the regression in each group so that it can be recombined (see here for examples).

Using this approach, what is your estimate of the slope random variables standard error? Is the distribution of the random variable well approximated by a normal distribution? If so, use this to provide a 95% confidence interval for our effect of stolen bases on runs per game. Do you think stolen bases help score runs?

Based on the outputs and plots of the residuals of the linear regression (below), I would conclude the distribution is approximated by a normal (although n is quite small here, and some deviation from normality can be seen on the QQ-plot and the Histogram). The estimate of the slope random variables standard error is 0.4098, with a 95% Confidence Interval of [-0.756,0.850]. Given that 0 is included in the confidence interval, I conclude that there is not sufficient statistical evidence that stolen bases help score runs.

#creating the regression line, stratified by year
dat <- Teams %>% filter(yearID %in% 1961:2001 ) %>% mutate(SB_per_game = SB/G, R_per_game = R/G) 
dat %>% group_by(yearID) %>%
  do(fit = lm(R_per_game ~ SB_per_game, data = .))

## Source: local data frame [41 x 2]
## Groups: <by row>
## 
## # A tibble: 41 x 2
##    yearID      fit
##  *  <int>   <list>
##  1   1961 <S3: lm>
##  2   1962 <S3: lm>
##  3   1963 <S3: lm>
##  4   1964 <S3: lm>
##  5   1965 <S3: lm>
##  6   1966 <S3: lm>
##  7   1967 <S3: lm>
##  8   1968 <S3: lm>
##  9   1969 <S3: lm>
## 10   1970 <S3: lm>
## # ... with 31 more rows
…
